# compile vhdl design source files
vhdl xil_defaultlib  \
"../../../../Trabajo.srcs/sources_1/new/FSM_psw.vhd" \
"../../../../Trabajo.srcs/sources_1/new/deb_top.vhd" \
"../../../../Trabajo.srcs/sources_1/new/debouncer.vhd" \
"../../../../Trabajo.srcs/sources_1/new/decoder.vhd" \
"../../../../Trabajo.srcs/sources_1/new/ed_top.vhd" \
"../../../../Trabajo.srcs/sources_1/new/edge_detector.vhd" \
"../../../../Trabajo.srcs/sources_1/new/segments.vhd" \
"../../../../Trabajo.srcs/sources_1/new/signal_acond.vhd" \
"../../../../Trabajo.srcs/sources_1/new/sync.vhd" \
"../../../../Trabajo.srcs/sources_1/new/sync_top.vhd" \
"../../../../Trabajo.srcs/sources_1/new/top.vhd" \
"../../../../Trabajo.srcs/sim_1/new/top_tb.vhd" \

# Do not sort compile order
nosort
