Copyright 1986-2021 Xilinx, Inc. All Rights Reserved.
------------------------------------------------------------------------------------
| Tool Version : Vivado v.2021.1 (win64) Build 3247384 Thu Jun 10 19:36:33 MDT 2021
| Date         : Wed Jan 19 03:53:10 2022
| Host         : DESKTOP-0UU3ISI running 64-bit major release  (build 9200)
| Command      : report_control_sets -verbose -file top_control_sets_placed.rpt
| Design       : top
| Device       : xc7a100t
------------------------------------------------------------------------------------

Control Set Information

Table of Contents
-----------------
1. Summary
2. Histogram
3. Flip-Flop Distribution
4. Detailed Control Set Information

1. Summary
----------

+----------------------------------------------------------+-------+
|                          Status                          | Count |
+----------------------------------------------------------+-------+
| Total control sets                                       |    12 |
|    Minimum number of control sets                        |    12 |
|    Addition due to synthesis replication                 |     0 |
|    Addition due to physical synthesis replication        |     0 |
| Unused register locations in slices containing registers |    64 |
+----------------------------------------------------------+-------+
* Control sets can be merged at opt_design using control_set_merge or merge_equivalent_drivers
** Run report_qor_suggestions for automated merging and remapping suggestions


2. Histogram
------------

+--------------------+-------+
|       Fanout       | Count |
+--------------------+-------+
| Total control sets |    12 |
| >= 0 to < 4        |     5 |
| >= 4 to < 6        |     0 |
| >= 6 to < 8        |     0 |
| >= 8 to < 10       |     0 |
| >= 10 to < 12      |     0 |
| >= 12 to < 14      |     0 |
| >= 14 to < 16      |     0 |
| >= 16              |     7 |
+--------------------+-------+
* Control sets can be remapped at either synth_design or opt_design


3. Flip-Flop Distribution
-------------------------

+--------------+-----------------------+------------------------+-----------------+--------------+
| Clock Enable | Synchronous Set/Reset | Asynchronous Set/Reset | Total Registers | Total Slices |
+--------------+-----------------------+------------------------+-----------------+--------------+
| No           | No                    | No                     |              37 |           13 |
| No           | No                    | Yes                    |               5 |            5 |
| No           | Yes                   | No                     |              18 |            5 |
| Yes          | No                    | No                     |               0 |            0 |
| Yes          | No                    | Yes                    |             100 |           25 |
| Yes          | Yes                   | No                     |               0 |            0 |
+--------------+-----------------------+------------------------+-----------------+--------------+


4. Detailed Control Set Information
-----------------------------------

+----------------+-------------------------------------------------------------------------------+-----------------------------------------------------------------+------------------+----------------+--------------+
|  Clock Signal  |                                 Enable Signal                                 |                         Set/Reset Signal                        | Slice Load Count | Bel Load Count | Bels / Slice |
+----------------+-------------------------------------------------------------------------------+-----------------------------------------------------------------+------------------+----------------+--------------+
|  clk_IBUF_BUFG |                                                                               | acondicionamiento_entradas/antirrebotes/deb_botonOK/reg_i_2_n_0 |                1 |              1 |         1.00 |
|  clk_IBUF_BUFG |                                                                               | acondicionamiento_entradas/antirrebotes/deb_boton2/reg_i_2_n_0  |                1 |              1 |         1.00 |
|  clk_IBUF_BUFG |                                                                               | acondicionamiento_entradas/antirrebotes/deb_boton3/reg_i_2_n_0  |                1 |              1 |         1.00 |
|  clk_IBUF_BUFG |                                                                               | acondicionamiento_entradas/antirrebotes/deb_boton1/reg_i_2_n_0  |                1 |              1 |         1.00 |
|  clk_IBUF_BUFG |                                                                               | acondicionamiento_entradas/antirrebotes/deb_boton4/reg_i_2_n_0  |                1 |              1 |         1.00 |
|  clk_IBUF_BUFG |                                                                               | segmentos/count_time[0]_i_1_n_0                                 |                5 |             18 |         3.60 |
|  clk_IBUF_BUFG | acondicionamiento_entradas/antirrebotes/deb_botonOK/count_time[19]_i_1__3_n_0 | acondicionamiento_entradas/antirrebotes/deb_botonOK/reg_i_2_n_0 |                5 |             20 |         4.00 |
|  clk_IBUF_BUFG | acondicionamiento_entradas/antirrebotes/deb_boton2/count_time[19]_i_1__0_n_0  | acondicionamiento_entradas/antirrebotes/deb_boton2/reg_i_2_n_0  |                5 |             20 |         4.00 |
|  clk_IBUF_BUFG | acondicionamiento_entradas/antirrebotes/deb_boton3/count_time[19]_i_1__1_n_0  | acondicionamiento_entradas/antirrebotes/deb_boton3/reg_i_2_n_0  |                5 |             20 |         4.00 |
|  clk_IBUF_BUFG | acondicionamiento_entradas/antirrebotes/deb_boton1/count_time[19]_i_1_n_0     | acondicionamiento_entradas/antirrebotes/deb_boton1/reg_i_2_n_0  |                5 |             20 |         4.00 |
|  clk_IBUF_BUFG | acondicionamiento_entradas/antirrebotes/deb_boton4/count_time[19]_i_1__2_n_0  | acondicionamiento_entradas/antirrebotes/deb_boton4/reg_i_2_n_0  |                5 |             20 |         4.00 |
|  clk_IBUF_BUFG |                                                                               |                                                                 |               13 |             37 |         2.85 |
+----------------+-------------------------------------------------------------------------------+-----------------------------------------------------------------+------------------+----------------+--------------+


